{
  "offices": [
    {
      "address": "Sucursal 01 Santa Ana, Chachuapa",
      "id": "chalchuapa",
      "image": "https://lh3.googleusercontent.com/Iim0OVcAgg9vmXc5ADn9KvOQFplrMZ8hBTg2biiTtuWPy_r56cy4Byx1ROk6coGt7knQdmx_jO45VX1kiCJZ0QzEtS97AP_BYG4F2w",
      "lat": 13.986855,
      "lng":  -89.677491,
      "name": "Chalchuapa",
      "phone": "",
      "region": "latin-america"
    },
    {
      "address": "Sucursal 02 Santa Ana, Chachuapa",
      "id": "congo",
      "image": "https://lh3.googleusercontent.com/Iim0OVcAgg9vmXc5ADn9KvOQFplrMZ8hBTg2biiTtuWPy_r56cy4Byx1ROk6coGt7knQdmx_jO45VX1kiCJZ0QzEtS97AP_BYG4F2w",
      "lat": 13.903884641275216, 
      "lng": -89.49970528680788,
      "name": "El Congo",
      "phone": "",
      "region": "latin-america"
    }    
  ],
  "regions": [
    {
      "coords": { "lat": 2.9660291, "lng": 1.3271339 },
      "id": "africa-middle-east",
      "name": "Africa & Middle East",
      "zoom": 3.0
    },
    {
      "coords": { "lat": 0.0524811, "lng": 127.6560787 },
      "id": "asia-pacific",
      "name": "Asia Pacific",
      "zoom": 3.0
    },
    {
      "coords": { "lat": 46.1352815, "lng": 7.4033438 },
      "id": "europe",
      "name": "Europe",
      "zoom": 4.0
    },
    {
      "coords": { "lat": -17.5554497, "lng": -99.2316195 },
      "id": "latin-america",
      "name": "Latin America",
      "zoom": 3.0
    },
    {
      "coords": { "lat": 45.7128252, "lng": -97.1547448 },
      "id": "north-america",
      "name": "North America",
      "zoom": 4.0
    }
  ]
}
